{
  "dev": {
    "driver": "pg",
    "user": "shortsweet",
    "password": "shorturlsaresweet",
    "host": "localhost",
    "database": "shortsweet",
    "schema": "public"
  },
  "prod": {
    "driver": "pg",
    "user": {"ENV": "PRODUCTION_USERNAME"},
    "password": {"ENV": "PRODUCTION_PASSWORD"},
    "host": {"ENV": "PRODUCTION_HOST"},
    "database": "shortsweet",
    "schema": "public"
  },
  "sql-file": true
}